…
    ##   cellIndex windowIndex PA_window               Label
    ## 1         1           1         0 Control_Rac1_Before
    ## 2         1           2         0 Control_Rac1_Before
    ## 3         1           3         0 Control_Rac1_Before
    ## 4         1           4         0 Control_Rac1_Before
    ## 5         1           5         0 Control_Rac1_Before
    ## 6         1           6         0 Control_Rac1_Before

The proportion of windows affected by photo activation can be calculated as below.

``` r
PA_Info %>% group_by(Label, cellIndex, PA_window) %>% summarise(number = n()) %>% mutate(proportion = number/sum(number)) %>% filter(PA_window == 1)
```

    ## # A tibble: 26 x 5
    ## # Groups:   Label, cellIndex [26]
    ##    Label               cellIndex PA_window number proportion
    ##    <chr>                   <int>     <int>  <int>      <dbl>
    ##  1 Control_Rac1_After          1         1    102     0.224 
    ##  2 Control_Rac1_After          2         1    180     0.309 
    ##  3 Control_Rac1_After          3         1    126     0.208 
    ##  4 Control_Rac1_After          4         1     42     0.25  
    ##  5 Control_Rac1_After          5         1     57     0.0815
    ##  6 Control_Rac1_After          6         1     99     0.398 
    ##  7 Control_Rac1_Before         1         1     99     0.228 
    ##  8 Control_Rac1_Before         2         1    171     0.341 
    ##  9 Control_Rac1_Before         3         1    102     0.171 
    ## 10 Control_Rac1_Before         4         1     45     0.268 
    ## # ... with 16 more rows
…
